test_keccak.vcd
$date
	Fri Nov 22 12:17:33 2024
$end
$version
	Icarus Verilog
$end
$timescale
	1ps
$end
$scope module test_keccak $end
$var wire 1 ! out_valid $end
$var wire 64 " out [63:0] $end
$var wire 1 # ack $end
$var reg 1 $ clk $end
$var reg 1 % gimme $end
$var reg 64 & in [63:0] $end
$var reg 1 ' in_valid $end
$var reg 1 ( is_last $end
$var reg 2 ) mode [1:0] $end
$var reg 1 * rst $end
$var reg 1 + start_calc $end
$var integer 32 , i [31:0] $end
$var integer 32 - j [31:0] $end
$scope module uut $end
$var wire 1 $ clk $end
$var wire 1 . f_in_ready $end
$var wire 1 % gimme $end
$var wire 1 / hash_init $end
$var wire 64 0 in [63:0] $end
$var wire 1 ' in_valid $end
$var wire 1 ( is_last $end
$var wire 1 1 load_en $end
$var wire 2 2 mode [1:0] $end
$var wire 1 3 out_count_zero $end
$var wire 1 * rst $end
$var wire 1 4 shift_en $end
$var wire 1 5 squeeze $end
$var wire 1 + start_calc $end
$var wire 1 6 takein_reg $end
$var wire 1 7 pad_out_ready $end
$var wire 64 8 pad_out [63:0] $end
$var wire 1 9 pack $end
$var wire 1 : p_out_ready $end
$var wire 64 ; p_out [63:0] $end
$var wire 1 ! out_valid $end
$var wire 1 < out_buf_empty $end
$var wire 64 = out [63:0] $end
$var wire 1 > is_loaded $end
$var wire 1 ? f_out_ready $end
$var wire 1600 @ f_out [1599:0] $end
$var wire 1344 A f_in [1343:0] $end
$var wire 1 B f_ack $end
$var wire 1 C cntr_zero $end
$var wire 1 D calc $end
$var wire 1 E buf_ful $end
$var wire 1 # ack $end
$var reg 1 F absorb_done $end
$var reg 5 G cntr_out [4:0] $end
$var reg 1 H last_in $end
$var reg 2 I mode_reg [1:0] $end
$var reg 1 J out_read $end
$var reg 1 K takein $end
$scope module f $end
$var wire 1 L accept $end
$var wire 1 B ack $end
$var wire 1 D calc_out $end
$var wire 1 $ clk $end
$var wire 1 M first_last $end
$var wire 1 . in_ready $end
$var wire 1 H last_in $end
$var wire 2 N mode [1:0] $end
$var wire 1 * reset $end
$var wire 1 5 squeeze $end
$var wire 1 O update $end
$var wire 24 P round_var [23:0] $end
$var wire 1600 Q round_out [1599:0] $end
$var wire 64 R rc [63:0] $end
$var wire 1 9 pack $end
$var wire 1344 S in [1343:0] $end
$var reg 1 T calc $end
$var reg 23 U i [22:0] $end
$var reg 1 V last_in_reg $end
$var reg 1600 W out [1599:0] $end
$var reg 1 ? out_ready $end
$var reg 1600 X round_in [1599:0] $end
$scope module rconst_ $end
$var wire 24 Y i [23:0] $end
$var reg 64 Z rc [63:0] $end
$upscope $end
$scope module round_ $end
$var wire 1600 [ in [1599:0] $end
$var wire 64 \ round_const [63:0] $end
$var wire 1600 ] out [1599:0] $end
$scope begin L0[0] $end
$var parameter 2 ^ y $end
$scope begin L1[0] $end
$var parameter 2 _ x $end
$upscope $end
$scope begin L1[1] $end
$var parameter 2 ` x $end
$upscope $end
$scope begin L1[2] $end
$var parameter 3 a x $end
$upscope $end
$scope begin L1[3] $end
$var parameter 3 b x $end
$upscope $end
$scope begin L1[4] $end
$var parameter 4 c x $end
$upscope $end
$upscope $end
$scope begin L0[1] $end
$var parameter 2 d y $end
$scope begin L1[0] $end
$var parameter 2 e x $end
$upscope $end
$scope begin L1[1] $end
$var parameter 2 f x $end
$upscope $end
$scope begin L1[2] $end
$var parameter 3 g x $end
$upscope $end
$scope begin L1[3] $end
$var parameter 3 h x $end
$upscope $end
$scope begin L1[4] $end
$var parameter 4 i x $end
$upscope $end
$upscope $end
$scope begin L0[2] $end
$var parameter 3 j y $end
$scope begin L1[0] $end
$var parameter 2 k x $end
$upscope $end
$scope begin L1[1] $end
$var parameter 2 l x $end
$upscope $end
$scope begin L1[2] $end
$var parameter 3 m x $end
$upscope $end
$scope begin L1[3] $end
$var parameter 3 n x $end
$upscope $end
$scope begin L1[4] $end
$var parameter 4 o x $end
$upscope $end
$upscope $end
$scope begin L0[3] $end
$var parameter 3 p y $end
$scope begin L1[0] $end
$var parameter 2 q x $end
$upscope $end
$scope begin L1[1] $end
$var parameter 2 r x $end
$upscope $end
$scope begin L1[2] $end
$var parameter 3 s x $end
$upscope $end
$scope begin L1[3] $end
$var parameter 3 t x $end
$upscope $end
$scope begin L1[4] $end
$var parameter 4 u x $end
$upscope $end
$upscope $end
$scope begin L0[4] $end
$var parameter 4 v y $end
$scope begin L1[0] $end
$var parameter 2 w x $end
$upscope $end
$scope begin L1[1] $end
$var parameter 2 x x $end
$upscope $end
$scope begin L1[2] $end
$var parameter 3 y x $end
$upscope $end
$scope begin L1[3] $end
$var parameter 3 z x $end
$upscope $end
$scope begin L1[4] $end
$var parameter 4 { x $end
$upscope $end
$upscope $end
$scope begin L2[0] $end
$var parameter 2 | x $end
$upscope $end
$scope begin L2[1] $end
$var parameter 2 } x $end
$upscope $end
$scope begin L2[2] $end
$var parameter 3 ~ x $end
$upscope $end
$scope begin L2[3] $end
$var parameter 3 !" x $end
$upscope $end
$scope begin L2[4] $end
$var parameter 4 "" x $end
$upscope $end
$scope begin L3[0] $end
$var parameter 2 #" y $end
$scope begin L4[0] $end
$var parameter 2 $" x $end
$upscope $end
$scope begin L4[1] $end
$var parameter 2 %" x $end
$upscope $end
$scope begin L4[2] $end
$var parameter 3 &" x $end
$upscope $end
$scope begin L4[3] $end
$var parameter 3 '" x $end
$upscope $end
$scope begin L4[4] $end
$var parameter 4 (" x $end
$upscope $end
$upscope $end
$scope begin L3[1] $end
$var parameter 2 )" y $end
$scope begin L4[0] $end
$var parameter 2 *" x $end
$upscope $end
$scope begin L4[1] $end
$var parameter 2 +" x $end
$upscope $end
$scope begin L4[2] $end
$var parameter 3 ," x $end
$upscope $end
$scope begin L4[3] $end
$var parameter 3 -" x $end
$upscope $end
$scope begin L4[4] $end
$var parameter 4 ." x $end
$upscope $end
$upscope $end
$scope begin L3[2] $end
$var parameter 3 /" y $end
$scope begin L4[0] $end
$var parameter 2 0" x $end
$upscope $end
$scope begin L4[1] $end
$var parameter 2 1" x $end
$upscope $end
$scope begin L4[2] $end
$var parameter 3 2" x $end
$upscope $end
$scope begin L4[3] $end
$var parameter 3 3" x $end
$upscope $end
$scope begin L4[4] $end
$var parameter 4 4" x $end
$upscope $end
$upscope $end
$scope begin L3[3] $end
$var parameter 3 5" y $end
$scope begin L4[0] $end
$var parameter 2 6" x $end
$upscope $end
$scope begin L4[1] $end
$var parameter 2 7" x $end
$upscope $end
$scope begin L4[2] $end
$var parameter 3 8" x $end
$upscope $end
$scope begin L4[3] $end
$var parameter 3 9" x $end
$upscope $end
$scope begin L4[4] $end
$var parameter 4 :" x $end
$upscope $end
$upscope $end
$scope begin L3[4] $end
$var parameter 4 ;" y $end
$scope begin L4[0] $end
$var parameter 2 <" x $end
$upscope $end
$scope begin L4[1] $end
$var parameter 2 =" x $end
$upscope $end
$scope begin L4[2] $end
$var parameter 3 >" x $end
$upscope $end
$scope begin L4[3] $end
$var parameter 3 ?" x $end
$upscope $end
$scope begin L4[4] $end
$var parameter 4 @" x $end
$upscope $end
$upscope $end
$scope begin L5[0] $end
$var parameter 2 A" y $end
$scope begin L6[0] $end
$var parameter 2 B" x $end
$upscope $end
$scope begin L6[1] $end
$var parameter 2 C" x $end
$upscope $end
$scope begin L6[2] $end
$var parameter 3 D" x $end
$upscope $end
$scope begin L6[3] $end
$var parameter 3 E" x $end
$upscope $end
$scope begin L6[4] $end
$var parameter 4 F" x $end
$upscope $end
$upscope $end
$scope begin L5[1] $end
$var parameter 2 G" y $end
$scope begin L6[0] $end
$var parameter 2 H" x $end
$upscope $end
$scope begin L6[1] $end
$var parameter 2 I" x $end
$upscope $end
$scope begin L6[2] $end
$var parameter 3 J" x $end
$upscope $end
$scope begin L6[3] $end
$var parameter 3 K" x $end
$upscope $end
$scope begin L6[4] $end
$var parameter 4 L" x $end
$upscope $end
$upscope $end
$scope begin L5[2] $end
$var parameter 3 M" y $end
$scope begin L6[0] $end
$var parameter 2 N" x $end
$upscope $end
$scope begin L6[1] $end
$var parameter 2 O" x $end
$upscope $end
$scope begin L6[2] $end
$var parameter 3 P" x $end
$upscope $end
$scope begin L6[3] $end
$var parameter 3 Q" x $end
$upscope $end
$scope begin L6[4] $end
$var parameter 4 R" x $end
$upscope $end
$upscope $end
$scope begin L5[3] $end
$var parameter 3 S" y $end
$scope begin L6[0] $end
$var parameter 2 T" x $end
$upscope $end
$scope begin L6[1] $end
$var parameter 2 U" x $end
$upscope $end
$scope begin L6[2] $end
$var parameter 3 V" x $end
$upscope $end
$scope begin L6[3] $end
$var parameter 3 W" x $end
$upscope $end
$scope begin L6[4] $end
$var parameter 4 X" x $end
$upscope $end
$upscope $end
$scope begin L5[4] $end
$var parameter 4 Y" y $end
$scope begin L6[0] $end
$var parameter 2 Z" x $end
$upscope $end
$scope begin L6[1] $end
$var parameter 2 [" x $end
$upscope $end
$scope begin L6[2] $end
$var parameter 3 \" x $end
$upscope $end
$scope begin L6[3] $end
$var parameter 3 ]" x $end
$upscope $end
$scope begin L6[4] $end
$var parameter 4 ^" x $end
$upscope $end
$upscope $end
$scope begin L60[0] $end
$var parameter 2 _" x $end
$scope begin genblk1 $end
$upscope $end
$upscope $end
$scope begin L60[1] $end
$var parameter 2 `" x $end
$scope begin genblk1 $end
$upscope $end
$upscope $end
$scope begin L60[2] $end
$var parameter 3 a" x $end
$scope begin genblk1 $end
$upscope $end
$upscope $end
$scope begin L60[3] $end
$var parameter 3 b" x $end
$scope begin genblk1 $end
$upscope $end
$upscope $end
$scope begin L60[4] $end
$var parameter 4 c" x $end
$scope begin genblk1 $end
$upscope $end
$upscope $end
$scope begin L60[5] $end
$var parameter 4 d" x $end
$scope begin genblk1 $end
$upscope $end
$upscope $end
$scope begin L60[6] $end
$var parameter 4 e" x $end
$scope begin genblk1 $end
$upscope $end
$upscope $end
$scope begin L60[7] $end
$var parameter 4 f" x $end
$scope begin genblk1 $end
$upscope $end
$upscope $end
$scope begin L60[8] $end
$var parameter 5 g" x $end
$scope begin genblk1 $end
$upscope $end
$upscope $end
$scope begin L60[9] $end
$var parameter 5 h" x $end
$scope begin genblk1 $end
$upscope $end
$upscope $end
$scope begin L60[10] $end
$var parameter 5 i" x $end
$scope begin genblk1 $end
$upscope $end
$upscope $end
$scope begin L60[11] $end
$var parameter 5 j" x $end
$scope begin genblk1 $end
$upscope $end
$upscope $end
$scope begin L60[12] $end
$var parameter 5 k" x $end
$scope begin genblk1 $end
$upscope $end
$upscope $end
$scope begin L60[13] $end
$var parameter 5 l" x $end
$scope begin genblk1 $end
$upscope $end
$upscope $end
$scope begin L60[14] $end
$var parameter 5 m" x $end
$scope begin genblk1 $end
$upscope $end
$upscope $end
$scope begin L60[15] $end
$var parameter 5 n" x $end
$scope begin genblk1 $end
$upscope $end
$upscope $end
$scope begin L60[16] $end
$var parameter 6 o" x $end
$scope begin genblk1 $end
$upscope $end
$upscope $end
$scope begin L60[17] $end
$var parameter 6 p" x $end
$scope begin genblk1 $end
$upscope $end
$upscope $end
$scope begin L60[18] $end
$var parameter 6 q" x $end
$scope begin genblk1 $end
$upscope $end
$upscope $end
$scope begin L60[19] $end
$var parameter 6 r" x $end
$scope begin genblk1 $end
$upscope $end
$upscope $end
$scope begin L60[20] $end
$var parameter 6 s" x $end
$scope begin genblk1 $end
$upscope $end
$upscope $end
$scope begin L60[21] $end
$var parameter 6 t" x $end
$scope begin genblk1 $end
$upscope $end
$upscope $end
$scope begin L60[22] $end
$var parameter 6 u" x $end
$scope begin genblk1 $end
$upscope $end
$upscope $end
$scope begin L60[23] $end
$var parameter 6 v" x $end
$scope begin genblk1 $end
$upscope $end
$upscope $end
$scope begin L60[24] $end
$var parameter 6 w" x $end
$scope begin genblk1 $end
$upscope $end
$upscope $end
$scope begin L60[25] $end
$var parameter 6 x" x $end
$scope begin genblk1 $end
$upscope $end
$upscope $end
$scope begin L60[26] $end
$var parameter 6 y" x $end
$scope begin genblk1 $end
$upscope $end
$upscope $end
$scope begin L60[27] $end
$var parameter 6 z" x $end
$scope begin genblk1 $end
$upscope $end
$upscope $end
$scope begin L60[28] $end
$var parameter 6 {" x $end
$scope begin genblk1 $end
$upscope $end
$upscope $end
$scope begin L60[29] $end
$var parameter 6 |" x $end
$scope begin genblk1 $end
$upscope $end
$upscope $end
$scope begin L60[30] $end
$var parameter 6 }" x $end
$scope begin genblk1 $end
$upscope $end
$upscope $end
$scope begin L60[31] $end
$var parameter 6 ~" x $end
$scope begin genblk1 $end
$upscope $end
$upscope $end
$scope begin L60[32] $end
$var parameter 7 !# x $end
$scope begin genblk1 $end
$upscope $end
$upscope $end
$scope begin L60[33] $end
$var parameter 7 "# x $end
$scope begin genblk1 $end
$upscope $end
$upscope $end
$scope begin L60[34] $end
$var parameter 7 ## x $end
$scope begin genblk1 $end
$upscope $end
$upscope $end
$scope begin L60[35] $end
$var parameter 7 $# x $end
$scope begin genblk1 $end
$upscope $end
$upscope $end
$scope begin L60[36] $end
$var parameter 7 %# x $end
$scope begin genblk1 $end
$upscope $end
$upscope $end
$scope begin L60[37] $end
$var parameter 7 &# x $end
$scope begin genblk1 $end
$upscope $end
$upscope $end
$scope begin L60[38] $end
$var parameter 7 '# x $end
$scope begin genblk1 $end
$upscope $end
$upscope $end
$scope begin L60[39] $end
$var parameter 7 (# x $end
$scope begin genblk1 $end
$upscope $end
$upscope $end
$scope begin L60[40] $end
$var parameter 7 )# x $end
$scope begin genblk1 $end
$upscope $end
$upscope $end
$scope begin L60[41] $end
$var parameter 7 *# x $end
$scope begin genblk1 $end
$upscope $end
$upscope $end
$scope begin L60[42] $end
$var parameter 7 +# x $end
$scope begin genblk1 $end
$upscope $end
$upscope $end
$scope begin L60[43] $end
$var parameter 7 ,# x $end
$scope begin genblk1 $end
$upscope $end
$upscope $end
$scope begin L60[44] $end
$var parameter 7 -# x $end
$scope begin genblk1 $end
$upscope $end
$upscope $end
$scope begin L60[45] $end
$var parameter 7 .# x $end
$scope begin genblk1 $end
$upscope $end
$upscope $end
$scope begin L60[46] $end
$var parameter 7 /# x $end
$scope begin genblk1 $end
$upscope $end
$upscope $end
$scope begin L60[47] $end
$var parameter 7 0# x $end
$scope begin genblk1 $end
$upscope $end
$upscope $end
$scope begin L60[48] $end
$var parameter 7 1# x $end
$scope begin genblk1 $end
$upscope $end
$upscope $end
$scope begin L60[49] $end
$var parameter 7 2# x $end
$scope begin genblk1 $end
$upscope $end
$upscope $end
$scope begin L60[50] $end
$var parameter 7 3# x $end
$scope begin genblk1 $end
$upscope $end
$upscope $end
$scope begin L60[51] $end
$var parameter 7 4# x $end
$scope begin genblk1 $end
$upscope $end
$upscope $end
$scope begin L60[52] $end
$var parameter 7 5# x $end
$scope begin genblk1 $end
$upscope $end
$upscope $end
$scope begin L60[53] $end
$var parameter 7 6# x $end
$scope begin genblk1 $end
$upscope $end
$upscope $end
$scope begin L60[54] $end
$var parameter 7 7# x $end
$scope begin genblk1 $end
$upscope $end
$upscope $end
$scope begin L60[55] $end
$var parameter 7 8# x $end
$scope begin genblk1 $end
$upscope $end
$upscope $end
$scope begin L60[56] $end
$var parameter 7 9# x $end
$scope begin genblk1 $end
$upscope $end
$upscope $end
$scope begin L60[57] $end
$var parameter 7 :# x $end
$scope begin genblk1 $end
$upscope $end
$upscope $end
$scope begin L60[58] $end
$var parameter 7 ;# x $end
$scope begin genblk1 $end
$upscope $end
$upscope $end
$scope begin L60[59] $end
$var parameter 7 <# x $end
$scope begin genblk1 $end
$upscope $end
$upscope $end
$scope begin L60[60] $end
$var parameter 7 =# x $end
$scope begin genblk1 $end
$upscope $end
$upscope $end
$scope begin L60[61] $end
$var parameter 7 ># x $end
$scope begin genblk1 $end
$upscope $end
$upscope $end
$scope begin L60[62] $end
$var parameter 7 ?# x $end
$scope begin genblk1 $end
$upscope $end
$upscope $end
$scope begin L60[63] $end
$var parameter 7 @# x $end
$scope begin genblk1 $end
$upscope $end
$upscope $end
$scope begin L7[0] $end
$var parameter 2 A# y $end
$scope begin L8[0] $end
$var parameter 2 B# x $end
$upscope $end
$scope begin L8[1] $end
$var parameter 2 C# x $end
$scope begin genblk1 $end
$upscope $end
$upscope $end
$scope begin L8[2] $end
$var parameter 3 D# x $end
$scope begin genblk1 $end
$upscope $end
$upscope $end
$scope begin L8[3] $end
$var parameter 3 E# x $end
$scope begin genblk1 $end
$upscope $end
$upscope $end
$scope begin L8[4] $end
$var parameter 4 F# x $end
$scope begin genblk1 $end
$upscope $end
$upscope $end
$upscope $end
$scope begin L7[1] $end
$var parameter 2 G# y $end
$scope begin L8[0] $end
$var parameter 2 H# x $end
$scope begin genblk1 $end
$upscope $end
$upscope $end
$scope begin L8[1] $end
$var parameter 2 I# x $end
$scope begin genblk1 $end
$upscope $end
$upscope $end
$scope begin L8[2] $end
$var parameter 3 J# x $end
$scope begin genblk1 $end
$upscope $end
$upscope $end
$scope begin L8[3] $end
$var parameter 3 K# x $end
$scope begin genblk1 $end
$upscope $end
$upscope $end
$scope begin L8[4] $end
$var parameter 4 L# x $end
$scope begin genblk1 $end
$upscope $end
$upscope $end
$upscope $end
$scope begin L7[2] $end
$var parameter 3 M# y $end
$scope begin L8[0] $end
$var parameter 2 N# x $end
$scope begin genblk1 $end
$upscope $end
$upscope $end
$scope begin L8[1] $end
$var parameter 2 O# x $end
$scope begin genblk1 $end
$upscope $end
$upscope $end
$scope begin L8[2] $end
$var parameter 3 P# x $end
$scope begin genblk1 $end
$upscope $end
$upscope $end
$scope begin L8[3] $end
$var parameter 3 Q# x $end
$scope begin genblk1 $end
$upscope $end
$upscope $end
$scope begin L8[4] $end
$var parameter 4 R# x $end
$scope begin genblk1 $end
$upscope $end
$upscope $end
$upscope $end
$scope begin L7[3] $end
$var parameter 3 S# y $end
$scope begin L8[0] $end
$var parameter 2 T# x $end
$scope begin genblk1 $end
$upscope $end
$upscope $end
$scope begin L8[1] $end
$var parameter 2 U# x $end
$scope begin genblk1 $end
$upscope $end
$upscope $end
$scope begin L8[2] $end
$var parameter 3 V# x $end
$scope begin genblk1 $end
$upscope $end
$upscope $end
$scope begin L8[3] $end
$var parameter 3 W# x $end
$scope begin genblk1 $end
$upscope $end
$upscope $end
$scope begin L8[4] $end
$var parameter 4 X# x $end
$scope begin genblk1 $end
$upscope $end
$upscope $end
$upscope $end
$scope begin L7[4] $end
$var parameter 4 Y# y $end
$scope begin L8[0] $end
$var parameter 2 Z# x $end
$scope begin genblk1 $end
$upscope $end
$upscope $end
$scope begin L8[1] $end
$var parameter 2 [# x $end
$scope begin genblk1 $end
$upscope $end
$upscope $end
$scope begin L8[2] $end
$var parameter 3 \# x $end
$scope begin genblk1 $end
$upscope $end
$upscope $end
$scope begin L8[3] $end
$var parameter 3 ]# x $end
$scope begin genblk1 $end
$upscope $end
$upscope $end
$scope begin L8[4] $end
$var parameter 4 ^# x $end
$scope begin genblk1 $end
$upscope $end
$upscope $end
$upscope $end
$scope begin L99[0] $end
$var parameter 2 _# y $end
$scope begin L100[0] $end
$var parameter 2 `# x $end
$upscope $end
$scope begin L100[1] $end
$var parameter 2 a# x $end
$upscope $end
$scope begin L100[2] $end
$var parameter 3 b# x $end
$upscope $end
$scope begin L100[3] $end
$var parameter 3 c# x $end
$upscope $end
$scope begin L100[4] $end
$var parameter 4 d# x $end
$upscope $end
$upscope $end
$scope begin L99[1] $end
$var parameter 2 e# y $end
$scope begin L100[0] $end
$var parameter 2 f# x $end
$upscope $end
$scope begin L100[1] $end
$var parameter 2 g# x $end
$upscope $end
$scope begin L100[2] $end
$var parameter 3 h# x $end
$upscope $end
$scope begin L100[3] $end
$var parameter 3 i# x $end
$upscope $end
$scope begin L100[4] $end
$var parameter 4 j# x $end
$upscope $end
$upscope $end
$scope begin L99[2] $end
$var parameter 3 k# y $end
$scope begin L100[0] $end
$var parameter 2 l# x $end
$upscope $end
$scope begin L100[1] $end
$var parameter 2 m# x $end
$upscope $end
$scope begin L100[2] $end
$var parameter 3 n# x $end
$upscope $end
$scope begin L100[3] $end
$var parameter 3 o# x $end
$upscope $end
$scope begin L100[4] $end
$var parameter 4 p# x $end
$upscope $end
$upscope $end
$scope begin L99[3] $end
$var parameter 3 q# y $end
$scope begin L100[0] $end
$var parameter 2 r# x $end
$upscope $end
$scope begin L100[1] $end
$var parameter 2 s# x $end
$upscope $end
$scope begin L100[2] $end
$var parameter 3 t# x $end
$upscope $end
$scope begin L100[3] $end
$var parameter 3 u# x $end
$upscope $end
$scope begin L100[4] $end
$var parameter 4 v# x $end
$upscope $end
$upscope $end
$scope begin L99[4] $end
$var parameter 4 w# y $end
$scope begin L100[0] $end
$var parameter 2 x# x $end
$upscope $end
$scope begin L100[1] $end
$var parameter 2 y# x $end
$upscope $end
$scope begin L100[2] $end
$var parameter 3 z# x $end
$upscope $end
$scope begin L100[3] $end
$var parameter 3 {# x $end
$upscope $end
$scope begin L100[4] $end
$var parameter 4 |# x $end
$upscope $end
$upscope $end
$upscope $end
$upscope $end
$scope module fifo $end
$var wire 1 $ clk $end
$var wire 1 % rd_en $end
$var wire 1 * rst $end
$var wire 1 : wr_en $end
$var wire 64 }# buf_in [63:0] $end
$var reg 1 < buf_empty $end
$var reg 1 E buf_full $end
$var reg 64 ~# buf_out [63:0] $end
$var reg 7 !$ fifo_counter [6:0] $end
$var reg 1 ! out_valid $end
$var reg 6 "$ rd_ptr [5:0] $end
$var reg 6 #$ wr_ptr [5:0] $end
$upscope $end
$scope module pad $end
$var wire 1 $ clk $end
$var wire 64 $$ in [63:0] $end
$var wire 1 ' in_valid $end
$var wire 1 ( is_last $end
$var wire 2 %$ mode [1:0] $end
$var wire 64 &$ out [63:0] $end
$var wire 1 * rst $end
$var wire 1 + start_calc $end
$var wire 1 K takein $end
$var wire 1 C cntr_zero $end
$var reg 1 # ack $end
$var reg 5 '$ cntr [4:0] $end
$var reg 1 ($ latch_last $end
$var reg 1 )$ latch_latch_last $end
$var reg 1 7 out_ready $end
$var reg 1 *$ pad $end
$var reg 64 +$ pad_out [63:0] $end
$var reg 1 6 takein_reg $end
$upscope $end
$scope module piso $end
$var wire 1 $ clk $end
$var wire 1 3 count_zero $end
$var wire 1344 ,$ data_in [1343:0] $end
$var wire 1 ? load_en $end
$var wire 1 9 pack $end
$var wire 1 * rst $end
$var wire 1 4 shift_en $end
$var wire 64 -$ data_out [63:0] $end
$var reg 1344 .$ data [1343:0] $end
$var reg 1 : out_ready $end
$upscope $end
$scope module sipo $end
$var wire 1 D calc $end
$var wire 1 $ clk $end
$var wire 1 C cntr_zero $end
$var wire 64 /$ data_in [63:0] $end
$var wire 1 / hash_init $end
$var wire 1 1 load_en $end
$var reg 1344 0$ data_out [1343:0] $end
$var reg 1 > is_loaded $end
$var reg 1 1$ is_loaded_temp $end
$upscope $end
$upscope $end
$scope task error $end
$upscope $end
$upscope $end
$enddefinitions $end
$comment Show the parameter values. $end
$dumpall
b100 |#
b11 {#
b10 z#
b1 y#
b0 x#
b100 w#
b100 v#
b11 u#
b10 t#
b1 s#
b0 r#
b11 q#
b100 p#
b11 o#
b10 n#
b1 m#
b0 l#
b10 k#
b100 j#
b11 i#
b10 h#
b1 g#
b0 f#
b1 e#
b100 d#
b11 c#
b10 b#
b1 a#
b0 `#
b0 _#
b100 ^#
b11 ]#
b10 \#
b1 [#
b0 Z#
b100 Y#
b100 X#
b11 W#
b10 V#
b1 U#
b0 T#
b11 S#
b100 R#
b11 Q#
b10 P#
b1 O#
b0 N#
b10 M#
b100 L#
b11 K#
b10 J#
b1 I#
b0 H#
b1 G#
b100 F#
b11 E#
b10 D#
b1 C#
b0 B#
b0 A#
b111111 @#
b111110 ?#
b111101 >#
b111100 =#
b111011 <#
b111010 ;#
b111001 :#
b111000 9#
b110111 8#
b110110 7#
b110101 6#
b110100 5#
b110011 4#
b110010 3#
b110001 2#
b110000 1#
b101111 0#
b101110 /#
b101101 .#
b101100 -#
b101011 ,#
b101010 +#
b101001 *#
b101000 )#
b100111 (#
b100110 '#
b100101 &#
b100100 %#
b100011 $#
b100010 ##
b100001 "#
b100000 !#
b11111 ~"
b11110 }"
b11101 |"
b11100 {"
b11011 z"
b11010 y"
b11001 x"
b11000 w"
b10111 v"
b10110 u"
b10101 t"
b10100 s"
b10011 r"
b10010 q"
b10001 p"
b10000 o"
b1111 n"
b1110 m"
b1101 l"
b1100 k"
b1011 j"
b1010 i"
b1001 h"
b1000 g"
b111 f"
b110 e"
b101 d"
b100 c"
b11 b"
b10 a"
b1 `"
b0 _"
b100 ^"
b11 ]"
b10 \"
b1 ["
b0 Z"
b100 Y"
b100 X"
b11 W"
b10 V"
b1 U"
b0 T"
b11 S"
b100 R"
b11 Q"
b10 P"
b1 O"
b0 N"
b10 M"
b100 L"
b11 K"
b10 J"
b1 I"
b0 H"
b1 G"
b100 F"
b11 E"
b10 D"
b1 C"
b0 B"
b0 A"
b100 @"
b11 ?"
b10 >"
b1 ="
b0 <"
b100 ;"
b100 :"
b11 9"
b10 8"
b1 7"
b0 6"
b11 5"
b100 4"
b11 3"
b10 2"
b1 1"
b0 0"
b10 /"
b100 ."
b11 -"
b10 ,"
b1 +"
b0 *"
b1 )"
b100 ("
b11 '"
b10 &"
b1 %"
b0 $"
b0 #"
b100 ""
b11 !"
b10 ~
b1 }
b0 |
b100 {
b11 z
b10 y
b1 x
b0 w
b100 v
b100 u
b11 t
b10 s
b1 r
b0 q
b11 p
b100 o
b11 n
b10 m
b1 l
b0 k
b10 j
b100 i
b11 h
b10 g
b1 f
b0 e
b1 d
b100 c
b11 b
b10 a
b1 `
b0 _
b0 ^
$end
#0
$dumpvars
x1$
b0 0$
b0 /$
b0 .$
b0 -$
bx ,$
b0 +$
0*$
0)$
0($
b0 '$
b0 &$
b0 %$
b0 $$
b0 #$
b0 "$
b0 !$
b0 ~#
b0 }#
bx ]
bx0000000000000000000000000000000x000000000000000x0000000x000x0xx \
bx [
bx0000000000000000000000000000000x000000000000000x0000000x000x0xx Z
bx0 Y
bx X
bx W
0V
bx U
xT
b0 S
bx0000000000000000000000000000000x000000000000000x0000000x000x0xx R
bx Q
bx0 P
xO
b0 N
0M
0L
0K
0J
b0 I
0H
b0 G
0F
0E
xD
0C
0B
b0 A
bx @
x?
0>
b0 =
1<
b0 ;
0:
x9
b0 8
07
06
05
04
13
b0 2
01
b0 0
1/
0.
bx -
bx ,
0+
1*
b0 )
0(
0'
b0 &
0%
0$
0#
b0 "
0!
$end
#2000
b0 Q
b0 ]
b0 R
b0 Z
b0 \
0O
b0 X
b0 [
b0 ,$
b0 P
b0 Y
b0 U
0D
0T
09
0?
b0 @
b0 W
01$
1$
#4000
0$
#6000
1$
#8000
0$
#9000
1'
b1111000011100001110100101100001110110100101001011001011010000111 &
b1111000011100001110100101100001110110100101001011001011010000111 0
b1111000011100001110100101100001110110100101001011001011010000111 $$
b1 )
b1 2
b1 %$
1+
0*
#10000
11
1K
b1 I
b1 N
17
b10001 '$
1$
#12000
0$
#13000
0/
0+
#14000
b10000 '$
1#
b1111000011100001110100101100001110110100101001011001011010000111 8
b1111000011100001110100101100001110110100101001011001011010000111 &$
b1111000011100001110100101100001110110100101001011001011010000111 /$
b1111000011100001110100101100001110110100101001011001011010000111 +$
16
1$
#16000
0$
#17000
b1111000111100010110100111100010010110101101001101001011110001000 &
b1111000111100010110100111100010010110101101001101001011110001000 0
b1111000111100010110100111100010010110101101001101001011110001000 $$
b0 ,
#18000
b1111000111100010110100111100010010110101101001101001011110001000 8
b1111000111100010110100111100010010110101101001101001011110001000 &$
b1111000111100010110100111100010010110101101001101001011110001000 /$
b1111000111100010110100111100010010110101101001101001011110001000 +$
1#
b1111 '$
b1111000011100001110100101100001110110100101001011001011010000111 A
b1111000011100001110100101100001110110100101001011001011010000111 S
b1111000011100001110100101100001110110100101001011001011010000111 0$
1$
#20000
0$
#21000
b1111001011100011110101001100010110110110101001111001100010001001 &
b1111001011100011110101001100010110110110101001111001100010001001 0
b1111001011100011110101001100010110110110101001111001100010001001 $$
b1 ,
#22000
b1110 '$
b1111001011100011110101001100010110110110101001111001100010001001 8
b1111001011100011110101001100010110110110101001111001100010001001 &$
b1111001011100011110101001100010110110110101001111001100010001001 /$
b1111001011100011110101001100010110110110101001111001100010001001 +$
1#
b11110000111000011101001011000011101101001010010110010110100001111111000111100010110100111100010010110101101001101001011110001000 A
b11110000111000011101001011000011101101001010010110010110100001111111000111100010110100111100010010110101101001101001011110001000 S
b11110000111000011101001011000011101101001010010110010110100001111111000111100010110100111100010010110101101001101001011110001000 0$
1$
#24000
0$
#25000
b1111001111100100110101011100011010110111101010001001100110001010 &
b1111001111100100110101011100011010110111101010001001100110001010 0
b1111001111100100110101011100011010110111101010001001100110001010 $$
b10 ,
#26000
b1111001111100100110101011100011010110111101010001001100110001010 8
b1111001111100100110101011100011010110111101010001001100110001010 &$
b1111001111100100110101011100011010110111101010001001100110001010 /$
b1111001111100100110101011100011010110111101010001001100110001010 +$
1#
b1101 '$
b111100001110000111010010110000111011010010100101100101101000011111110001111000101101001111000100101101011010011010010111100010001111001011100011110101001100010110110110101001111001100010001001 A
b111100001110000111010010110000111011010010100101100101101000011111110001111000101101001111000100101101011010011010010111100010001111001011100011110101001100010110110110101001111001100010001001 S
b111100001110000111010010110000111011010010100101100101101000011111110001111000101101001111000100101101011010011010010111100010001111001011100011110101001100010110110110101001111001100010001001 0$
1$
#28000
0$
#29000
b1111010011100101110101101100011110111000101010011001101010001011 &
b1111010011100101110101101100011110111000101010011001101010001011 0
b1111010011100101110101101100011110111000101010011001101010001011 $$
b11 ,
